Research Beyond the Lab: Open Science and Research Methods for a Global Engineer - Data import & Data organization in spreadsheets
…
readxl

read_excel() - read xls or xlsx files

…

Reading data from CSV files

import unprocessed raw data

waste <- read_csv("data/raw/waste-city-level.csv")

waste

# A tibble: 367 × 113
   iso3c region_id country_name       income_id city_name additional_data_annu…¹
   <chr> <chr>     <chr>              <chr>     <chr>     <chr>                 
 1 AFG   SAS       Afghanistan        LIC       Jalalabad <NA>                  
 2 AFG   SAS       Afghanistan        LIC       Kandahar  <NA>                  
 3 AFG   SAS       Afghanistan        LIC       Mazar-E-… <NA>                  
 4 AFG   SAS       Afghanistan        LIC       Kabul     <NA>                  
 5 AFG   SAS       Afghanistan        LIC       HiratÂ    <NA>                  
 6 AGO   SSF       Angola             LMC       Luanda    <NA>                  
 7 ALB   ECS       Albania            UMC       Korca     <NA>                  
 8 ALB   ECS       Albania            UMC       Vlora     <NA>                  
 9 ARE   MEA       United Arab Emira… HIC       Abu Dhabi <NA>                  
10 ARE   MEA       United Arab Emira… HIC       Dubai     <NA>                  
# ℹ 357 more rows
# ℹ abbreviated name: ¹​additional_data_annual_budget_for_waste_management_year
# ℹ 107 more variables: additional_data_annual_solid_waste_budget_year <chr>,
#   additional_data_annual_swm_budget_2017_year <dbl>,
#   additional_data_annual_swm_budget_year <dbl>,
#   additional_data_annual_waste_budget_year <dbl>,
#   additional_data_collection_ton <dbl>, …
…
