data science for openwashdata - Concept of Tidy Data, Vectors & Pivoting
…
# A tibble: 1 × 1
  mean_price_glass
             <dbl>
1               NA

Always respect your data types!

Taking the mean of vector with type “character” is not possible.

# A tibble: 22 × 4
      id job      price_glass price_glass_new
   <int> <chr>    <chr>       <chr>          
 1     1 Student  0           0              
 2     2 Retired  0           0              
 3     3 Other    0           0              
 4     4 Employed 10          10             
 5     5 Employed See comment <NA>           
 6     6 Student  05-Oct      7.5            
 7     7 Student  0           0              
 8     8 Retired  0           0              
 9     9 Student  10          10             
10    10 Employed 0           0              
# ℹ 12 more rows
…
